{
    "initialState": 2,
    "states": 5,
    "actions": 2,
    "terminalStates": [0, 4],
    "reward": [
        [-5, -1, -1, -1, 5],
        [-5, -1, -1, -1, 5],
        [-5, -1, -1, -1, 5],
        [-5, -1, -1, -1, 5],
        [-5, -1, -1, -1, 5]
    ],
    "validActions": [
        [1],
        [0, 1],
        [0, 1],
        [0, 1],
        [0]
    ],
    "dynamics": [
        [
            [0, 0, 0, 0, 0],
            [0, 1.0, 0, 0, 0]
        ],
        [
            [1.0, 0, 0, 0, 0],
            [0, 0, 1.0, 0, 0]
        ],
        [
            [0, 1.0, 0, 0, 0],
            [0, 0, 0, 1.0, 0]
        ],
        [
            [0, 0, 1.0, 0, 0],
            [0, 0, 0, 0, 1.0]
        ],
        [
            [0, 0, 0, 1.0, 0],
            [0, 0, 0, 0, 0]
        ]
    ]
}